running hphp...
parsing inputs...
parsing /media/sdd2/home/mdupont/2010/02/hiphop/hiphop-php-0.1/merge/hiphop-php/test/tests/security/open_basedir_readlink.php...
parsing /media/sdd2/home/mdupont/2010/02/hiphop/hiphop-php-0.1/merge/hiphop-php/test/tests/security/open_basedir.inc...
parsing inputs took 0'00" (17 ms) (null)
pre-optimizing...
pre-optimizing took 0'00" (1 ms) (null)
inferring types...
inferring types took 0'00" (19 ms) (null)
post-optimizing...
post-optimizing took 0'00" (1 ms) (null)
creating CPP files...
creating CPP files took 0'00" (135 ms) (null)
all files saved in /media/sdd2/home/mdupont/2010/02/hiphop/hiphop-php-0.1/merge/hiphop-php/test/tests/security/open_basedir_readlink.php_gen ...
running hphp took 0'00" (851 ms) (null)