
---- EXPECTED OUTPUT
Notice: ob_start(): failed to create buffer in %s on line 13
bool(false)

Notice: ob_start(): failed to create buffer in %s on line 14
bool(false)

Notice: ob_start(): failed to create buffer in %s on line 15
bool(false)

Notice: ob_start(): failed to create buffer in %s on line 16
bool(false)
done
---- ACTUAL OUTPUT
running hphp...
parsing inputs...
parsing /media/sdd2/home/mdupont/2010/02/hiphop/hiphop-php-0.1/merge/hiphop-php/test/tests/output/ob_start_error_002.php...
parsing inputs took 0'00" (8 ms) (null)
pre-optimizing...
pre-optimizing took 0'00" (0 ms) (null)
inferring types...
inferring types took 0'00" (1 ms) (null)
post-optimizing...
post-optimizing took 0'00" (0 ms) (null)
creating CPP files...
creating CPP files took 0'00" (127 ms) (null)
all files saved in /media/sdd2/home/mdupont/2010/02/hiphop/hiphop-php-0.1/merge/hiphop-php/test/tests/output/ob_start_error_002.php_gen ...
running hphp took 0'00" (798 ms) (null)
---- FAILED
