running hphp...
parsing inputs...
parsing /media/sdd2/home/mdupont/2010/02/hiphop/hiphop-php-0.1/merge/hiphop-php/test/tests/classes/constants_error_007.php...
parsing inputs took 0'00" (1 ms) (null)
running hphp took 0'00" (691 ms) (null)
Exception: Unable to parse file: /media/sdd2/home/mdupont/2010/02/hiphop/hiphop-php-0.1/merge/hiphop-php/test/tests/classes/constants_error_007.php
 (Line: 8, Char: 24): syntax error, unexpected ';', expecting '('