running hphp...
parsing inputs...
parsing /media/sdd2/home/mdupont/2010/02/hiphop/hiphop-php-0.1/merge/hiphop-php/test/tests/classes/constants_error_004.php...
parsing inputs took 0'00" (7 ms) (null)
pre-optimizing...
pre-optimizing took 0'00" (0 ms) (null)
inferring types...
inferring types took 0'00" (0 ms) (null)
post-optimizing...
post-optimizing took 0'00" (0 ms) (null)
creating CPP files...
creating CPP files took 0'00" (139 ms) (null)
saving code errors...
all files saved in /media/sdd2/home/mdupont/2010/02/hiphop/hiphop-php-0.1/merge/hiphop-php/test/tests/classes/constants_error_004.php_gen ...
running hphp took 0'00" (839 ms) (null)