running hphp...
parsing inputs...
parsing /media/sdd2/home/mdupont/2010/02/hiphop/hiphop-php-0.1/merge/hiphop-php/test/tests/lang/foreachLoop.013.php...
parsing inputs took 0'00" (12 ms) (null)
pre-optimizing...
pre-optimizing took 0'00" (1 ms) (null)
inferring types...
inferring types took 0'00" (4 ms) (null)
post-optimizing...
post-optimizing took 0'00" (0 ms) (null)
creating CPP files...
creating CPP files took 0'00" (139 ms) (null)
saving code errors...
all files saved in /media/sdd2/home/mdupont/2010/02/hiphop/hiphop-php-0.1/merge/hiphop-php/test/tests/lang/foreachLoop.013.php_gen ...
running hphp took 0'00" (823 ms) (null)