running hphp...
parsing inputs...
parsing /media/sdd2/home/mdupont/2010/02/hiphop/hiphop-php-0.1/merge/hiphop-php/test/tests/lang/foreachLoop.007.php...
parsing inputs took 0'00" (0 ms) (null)
running hphp took 0'00" (717 ms) (null)
Exception: Unable to parse file: /media/sdd2/home/mdupont/2010/02/hiphop/hiphop-php-0.1/merge/hiphop-php/test/tests/lang/foreachLoop.007.php
 (Line: 3, Char: 24): syntax error, unexpected '&', expecting T_STRING or T_VARIABLE or '$'