running hphp...
parsing inputs...
parsing /media/sdd2/home/mdupont/2010/02/hiphop/hiphop-php-0.1/merge/hiphop-php/test/tests/lang/include_variation1.php...
parsing /media/sdd2/home/mdupont/2010/02/hiphop/hiphop-php-0.1/merge/hiphop-php/test/tests/lang/inc.inc...
parsing inputs took 0'00" (27 ms) (null)
pre-optimizing...
pre-optimizing took 0'00" (0 ms) (null)
inferring types...
inferring types took 0'00" (0 ms) (null)
post-optimizing...
post-optimizing took 0'00" (0 ms) (null)
creating CPP files...
creating CPP files took 0'00" (128 ms) (null)
all files saved in /media/sdd2/home/mdupont/2010/02/hiphop/hiphop-php-0.1/merge/hiphop-php/test/tests/lang/include_variation1.php_gen ...
running hphp took 0'00" (869 ms) (null)