
---- EXPECTED OUTPUT
Hello World Hello Again World 1
---- ACTUAL OUTPUT
Exception: Unable to parse file: ./tests/classes/constants_error_006.php
 (Line: 8, Char: 19): syntax error, unexpected '='
---- FAILED
