running hphp...
parsing inputs...
parsing /media/sdd2/home/mdupont/2010/02/hiphop/hiphop-php-0.1/merge/hiphop-php/test/tests/lang/operators/operator_gt_or_equal_variation_64bit.php...
parsing inputs took 0'00" (11 ms) (null)
pre-optimizing...
pre-optimizing took 0'00" (3 ms) (null)
inferring types...
inferring types took 0'00" (3 ms) (null)
post-optimizing...
post-optimizing took 0'00" (0 ms) (null)
creating CPP files...
creating CPP files took 0'00" (135 ms) (null)
all files saved in /media/sdd2/home/mdupont/2010/02/hiphop/hiphop-php-0.1/merge/hiphop-php/test/tests/lang/operators/operator_gt_or_equal_variation_64bit.php_gen ...
running hphp took 0'00" (842 ms) (null)