running hphp...
parsing inputs...
parsing /media/sdd2/home/mdupont/2010/02/hiphop/hiphop-php-0.1/merge/hiphop-php/test/tests/lang/operators/operator_lt_variation.php...
parsing inputs took 0'00" (10 ms) (null)
pre-optimizing...
pre-optimizing took 0'00" (2 ms) (null)
inferring types...
inferring types took 0'00" (3 ms) (null)
post-optimizing...
post-optimizing took 0'00" (0 ms) (null)
creating CPP files...
creating CPP files took 0'00" (133 ms) (null)
all files saved in /media/sdd2/home/mdupont/2010/02/hiphop/hiphop-php-0.1/merge/hiphop-php/test/tests/lang/operators/operator_lt_variation.php_gen ...
running hphp took 0'00" (825 ms) (null)